{"data":[{"id":16,"name":"Pidgey","image":"https:\/\/intern-pokedex.myriadapps.com\/images\/pokemon\/16.png","types":["flying","normal"]},{"id":17,"name":"Pidgeotto","image":"https:\/\/intern-pokedex.myriadapps.com\/images\/pokemon\/17.png","types":["flying","normal"]},{"id":18,"name":"Pidgeot","image":"https:\/\/intern-pokedex.myriadapps.com\/images\/pokemon\/18.png","types":["flying","normal"]},{"id":19,"name":"Rattata","image":"https:\/\/intern-pokedex.myriadapps.com\/images\/pokemon\/19.png","types":["normal"]},{"id":20,"name":"Raticate","image":"https:\/\/intern-pokedex.myriadapps.com\/images\/pokemon\/20.png","types":["normal"]},{"id":21,"name":"Spearow","image":"https:\/\/intern-pokedex.myriadapps.com\/images\/pokemon\/21.png","types":["flying","normal"]},{"id":22,"name":"Fearow","image":"https:\/\/intern-pokedex.myriadapps.com\/images\/pokemon\/22.png","types":["flying","normal"]},{"id":23,"name":"Ekans","image":"https:\/\/intern-pokedex.myriadapps.com\/images\/pokemon\/23.png","types":["poison"]},{"id":24,"name":"Arbok","image":"https:\/\/intern-pokedex.myriadapps.com\/images\/pokemon\/24.png","types":["poison"]},{"id":25,"name":"Pikachu","image":"https:\/\/intern-pokedex.myriadapps.com\/images\/pokemon\/25.png","types":["electric"]},{"id":26,"name":"Raichu","image":"https:\/\/intern-pokedex.myriadapps.com\/images\/pokemon\/26.png","types":["electric"]},{"id":27,"name":"Sandshrew","image":"https:\/\/intern-pokedex.myriadapps.com\/images\/pokemon\/27.png","types":["ground"]},{"id":28,"name":"Sandslash","image":"https:\/\/intern-pokedex.myriadapps.com\/images\/pokemon\/28.png","types":["ground"]},{"id":29,"name":"Nidoran\u2640","image":"https:\/\/intern-pokedex.myriadapps.com\/images\/pokemon\/29.png","types":["poison"]},{"id":30,"name":"Nidorina","image":"https:\/\/intern-pokedex.myriadapps.com\/images\/pokemon\/30.png","types":["poison"]}],"links":{"first":"https:\/\/intern-pokedex.myriadapps.com\/api\/v1\/pokemon?page=1","last":"https:\/\/intern-pokedex.myriadapps.com\/api\/v1\/pokemon?page=37","prev":"https:\/\/intern-pokedex.myriadapps.com\/api\/v1\/pokemon?page=1","next":"https:\/\/intern-pokedex.myriadapps.com\/api\/v1\/pokemon?page=3"},"meta":{"current_page":2,"from":16,"last_page":37,"path":"https:\/\/intern-pokedex.myriadapps.com\/api\/v1\/pokemon","per_page":15,"to":30,"total":553}}